{
    "teams": [
        {
            "id": 1,
            "name": "FC Barcelona",
            "coach": "Ernesto Valverde",
            "description": "The best football team in the world!"
        },
        {
            "id": 2,
            "name": "Real Madrid",
            "coach": "Zinedine Zidane",
            "description": "The worst football team in the world!"
        }
    ],
    "tickets": [
        {
            "id": 1,
            "_links": [
                {
                    "href": "/v1/dsm/tickets/17740603/locations",
                    "rel": "self",
                    "method": "GET"
                }
            ],
            "count": 2,
            "totalCount": 2,
            "locations": {
                "status": {
                    "statusDesc": "Pouring",
                    "statusCode": "Pou"
                },
                "target": {
                    "_links": [
                        {
                            "href": "/v7/dm/jobsites/4316",
                            "rel": "self",
                            "method": "GET"
                        }
                    ],
                    "address": {
                        "geoPlace": {
                            "latitude": 37.231593,
                            "longitude": -121.919526
                        }
                    },
                    "ETA": 0
                },
                "truck": {
                    "_links": [
                        {
                            "href": "/v1/stm/trucks/4316",
                            "rel": "self",
                            "method": "GET"
                        }
                    ],
                    "truckId": 4316,
                    "truckPlate": "ACEM6045",
                    "equipmentCode": "BB3109",
                    "position": {
                        "address": {
                            "geoPlace": {
                                "latitude": 37.231593,
                                "longitude": -121.919526
                            }
                        },
                        "status": {
                            "statusDesc": "Pouring",
                            "statusCode": "Pou"
                        },
                        "date": "2019-06-18T18:31:55"
                    }
                }
            }
        }
    ],
    "orderSummary": {
        "id": 1,
        "links": [
            {
                "href": "/v1/odm/orders/summaries?page=1&fetch=30",
                "method": "GET",
                "rel": "self"
            },
            {
                "href": "/v1/odm/orders/summaries?page=2&fetch=30",
                "method": "GET",
                "rel": "next"
            }
        ],
        "orders": [
            {
                "links": [
                    {
                        "href": "/v1/odm/orders/443569/summaries",
                        "method": "GET",
                        "rel": "self"
                    }
                ],
                "orderId": 443569,
                "orderCode": "210000999566",
                "orderRequesterDesc": " ",
                "jobsite": {
                    "links": [
                        {
                            "href": "/v7/dm/jobsites/145785",
                            "method": "GET",
                            "rel": "self"
                        }
                    ],
                    "jobsiteId": 145785,
                    "jobsiteCode": "0065315105",
                    "jobsiteDesc": "ראשל\"צ, ילדי טהרן 6 - קנדי",
                    "address": {
                        "links": [
                            {
                                "href": "/v6/sm/addresses/486146",
                                "method": "GET",
                                "rel": "self"
                            }
                        ],
                        "addressId": 486146,
                        "addressCode": "0001039291",
                        "cityDesc": "ראשל\"צ",
                        "regionCode": "01",
                        "regionDesc": "מרכז",
                        "countryCode": "IL ",
                        "streetName": "ילדי טהרן 6 - קנדי",
                        "domicileNum": "",
                        "settlementDesc": "",
                        "postalCode": "",
                        "geoplace": {
                            "geoPlaceId": 486146,
                            "latitude": 31.984786000000000,
                            "longitude": 34.770255000000000,
                            "altitude": 0.000000000000000
                        },
                        "timeOffset": "UTC+2",
                        "timeZone": {
                            "links": [
                                {
                                    "href": "/v2/im/timezones/273",
                                    "method": "GET",
                                    "rel": "self"
                                }
                            ],
                            "timeZoneId": 273,
                            "ianaCode": "Asia/Jerusalem",
                            "windowsCode": "Israel Standard Time"
                        }
                    }
                },
                "customer": {
                    "links": [
                        {
                            "href": "/v4/crm/customers/76906",
                            "method": "GET",
                            "rel": "self"
                        }
                    ],
                    "customerId": 76906,
                    "customerCode": "0050045000",
                    "customerDesc": "‪שרונים בניה ופיתוח בע\"מ"
                },
                "shippingCondition": {
                    "links": [
                        {
                            "href": "/v7/dm/shippingconditions/20",
                            "method": "GET",
                            "rel": "self"
                        }
                    ],
                    "shippingConditionId": 20,
                    "shippingConditionCode": "01",
                    "shippingConditionDesc": "Delivered"
                },
                "totalQuantity": 16.000,
                "startOrderDateTime": "2021-03-10T19:00:00",
                "startOrderDateTimeNoUTC": "2021-03-10T21:00:00",
                "actualStartedOrderDateTime": "1900-01-01T00:00:00",
                "endOrderDateTime": "2021-03-10T19:00:00",
                "actualEndOrderDateTime": "2021-03-13T16:55:34",
                "estimatedFinishPourDatetime": "1900-01-01T00:00:00",
                "estimatedTimeToFinishPour": -10288,
                "spacing": 0,
                "orderProducts": [
                    {
                        "links": [
                            {
                                "href": "/v2/mm/products/285843",
                                "method": "GET",
                                "rel": "self"
                            }
                        ],
                        "productId": 285843,
                        "itemId": 487908,
                        "productCode": "000000000020009003",
                        "productDesc": "F4,ב-30,ד\"ח ,3,4 19 מ\"מ,טרמי,DT ACTIVE,",
                        "commercialDesc": "Prueba test Mix Reference",
                        "quantity": 16.000,
                        "unitOfMeasure": "M3",
                        "customerProdDesc": "Prueba test Mix Reference"
                    }
                ],
                "tickets": [
                    {
                        "links": [
                            {
                                "href": "/v9/dm/tickets/9596395",
                                "method": "GET",
                                "rel": "self"
                            }
                        ],
                        "ticketId": 9596395,
                        "ticketCode": "3706000151",
                        "loadNumber": 1,
                        "deliveryDateTime": "2021-03-10T16:53:19",
                        "ticketStatus": {
                            "ticketStatusId": 20,
                            "ticketStatusCode": "ORT",
                            "ticketStatusDesc": "On Route"
                        },
                        "truck": {
                            "truckNumber": "6701832"
                        },
                        "products": [
                            {
                                "links": [
                                    {
                                        "href": "/v2/mm/products/285843",
                                        "method": "GET",
                                        "rel": "self"
                                    }
                                ],
                                "productId": 285843,
                                "productCode": "000000000020009003",
                                "productDesc": "F4,ב-30,ד\"ח ,3,4 19 מ\"מ,טרמי,DT ACTIVE, DEEP TON",
                                "quantity": 1.000,
                                "unit": {
                                    "links": [
                                        {
                                            "href": "/v2/im/units/936",
                                            "method": "GET",
                                            "rel": "self"
                                        }
                                    ],
                                    "unitId": 936,
                                    "unitDesc": "Cubic meter",
                                    "unitCode": "M3"
                                },
                                "materialType": {
                                    "materialTypeId": 1,
                                    "materialTypeCode": "CONC",
                                    "materialTypeDesc": "Concrete"
                                }
                            }
                        ],
                        "totalDeliveredQuantity": 10.5
                    },
                    {
                        "links": [
                            {
                                "href": "/v9/dm/tickets/9596395",
                                "method": "GET",
                                "rel": "self"
                            }
                        ],
                        "ticketId": 9596396,
                        "ticketCode": "3706000152",
                        "loadNumber": 5,
                        "deliveryDateTime": "2021-03-10T16:53:19",
                        "ticketStatus": {
                            "ticketStatusId": 20,
                            "ticketStatusCode": "ORT",
                            "ticketStatusDesc": "On Route"
                        },
                        "truck": {
                            "truckNumber": "6701832"
                        },
                        "products": [
                            {
                                "links": [
                                    {
                                        "href": "/v2/mm/products/285843",
                                        "method": "GET",
                                        "rel": "self"
                                    }
                                ],
                                "productId": 285843,
                                "productCode": "000000000020009003",
                                "productDesc": "F4,ב-30,ד\"ח ,3,4 19 מ\"מ,טרמי,DT ACTIVE, DEEP TON",
                                "quantity": 1.000,
                                "unit": {
                                    "links": [
                                        {
                                            "href": "/v2/im/units/936",
                                            "method": "GET",
                                            "rel": "self"
                                        }
                                    ],
                                    "unitId": 936,
                                    "unitDesc": "Cubic meter",
                                    "unitCode": "M3"
                                },
                                "materialType": {
                                    "materialTypeId": 1,
                                    "materialTypeCode": "CONC",
                                    "materialTypeDesc": "Concrete"
                                }
                            }
                        ],
                        "totalDeliveredQuantity": 8.3
                    }
                ],
                "orderStatusCode": "STR",
                "orderStatus": "In Progress",
                "onRouteTrucks": 0,
                "onRouteProductQuantity": 0.000,
                "onSiteTrucks": 0,
                "onSiteProductQuantity": 0.000,
                "pouringTrucks": 0,
                "pouringProductQuantity": 0.000,
                "pouredTrucks": 1,
                "pouredProductQuantity": 1.000,
                "totalLoads": 1,
                "nextTruckEta": 0.0,
                "purchaseOrder": "",
                "deliveryAddress": {
                    "links": [
                        {
                            "href": "/v6/sm/addresses/1799517",
                            "method": "GET",
                            "rel": "self"
                        }
                    ],
                    "deliveryAddressDesc" : "SMITH'S STORE #357 TI",
                    "addressId": 1799517,
                    "addressCode": "4007789414",
                    "cityDesc": "ONTARIO",
                    "regionCode": "CA",
                    "regionDesc": "California",
                    "countryCode": "US ",
                    "streetName": "IE *RICARDO* -DEL ADD REQ",
                    "domicileNum": "",
                    "settlementDesc": "SAN BERNARDINO",
                    "postalCode": "91764",
                    "geoPlace": {
                        "geoPlaceId": 2614002,
                        "latitude": 37.23122555968059,
                        "longitude": -121.91548574387248,
                        "altitude": 0.000000000000000
                    },
                    "timeOffset": "UTC-8",
                    "timeZone": {
                        "links": [
                            {
                                "href": "/v2/im/timezones/301",
                                "method": "GET",
                                "rel": "self"
                            }
                        ],
                        "timeZoneId": 301,
                        "ianaCode": "America/Los_Angeles",
                        "windowsCode": "Pacific Standard Time"
                    }
                }
            }],
            "count": 1,
            "totalCount": 1
        },
        "locationsOrder": {
            "_links": [
                {
                    "href": "/v1/dsm/locations",
                    "rel": "self",
                    "method": "GET"
                }
            ],
            "count": 2,
            "totalCount": "2",
            "locations": [
                {
                    "status": {
                        "statusDesc": "Pouring",
                        "statusCode": "Pou"
                    },
                    "target": {
                        "_links": [
                            {
                                "href": "/v7/dm/jobsites/4316",
                                "rel": "self",
                                "method": "GET"
                            }
                        ],
                        "address": {
                            "geoPlace": {
                                "latitude": "37.231593",
                                "longitude": "-121.919526"
                            }
                        },
                        "ETA": "2019-06-18T18:31:55",
                        "ETAUpdated": 10
                    },
                    "truck": {
                        "_links": [
                            {
                                "href": "/v1/stm/trucks/4316",
                                "rel": "self",
                                "method": "GET"
                            }
                        ],
                        "truckId": 4316,
                        "truckPlate": "ACEM6045",
                        "equipmentCode": "BB3109",
                        "position": {
                            "address": {
                                "geoPlace": {
                                    "latitude": "37.231593",
                                    "longitude": "-121.919526"
                                }
                            },
                            "status": {
                                "statusDesc": "Pouring",
                                "statusCode": "Pou"
                            },
                            "date": "2019-06-18T18:31:55+00:00"
                        }
                    },
                    "ticket": {
                        "_links": [
                            {
                                "href": "/v1/dsm/tickets/14759454",
                                "rel": "self",
                                "method": "GET"
                            }
                        ],
                        "ticketId": 9596395,
                        "ticketCode": "3706000151",
                        "order": {
                            "_links": [
                                {
                                    "href": "/v1/ofm/orders/8985359",
                                    "rel": "self",
                                    "method": "GET"
                                }
                            ],
                            "orderId": 8985359,
                            "orderCode": "A8985359"
                        }
                    }
                },
                {
                    "status": {
                        "statusDesc": "Pouring",
                        "statusCode": "Pou"
                    },
                    "target": {
                        "_links": [
                            {
                                "href": "/v7/dm/jobsites/4316",
                                "rel": "self",
                                "method": "GET"
                            }
                        ],
                        "address": {
                            "geoPlace": {
                                "latitude": "37.23114023869119",
                                "longitude": "-121.91565289300554"
                            }
                        },
                        "ETA": "2019-06-18T18:31:55",
                        "ETAUpdated": 12
                    },
                    "truck": {
                        "_links": [
                            {
                                "href": "/v1/stm/trucks/4316",
                                "rel": "self",
                                "method": "GET"
                            }
                        ],
                        "truckId": 4316,
                        "truckPlate": "ACEM6046",
                        "equipmentCode": "BB3109",
                        "position": {
                            "address": {
                                "geoPlace": {
                                    "latitude": "37.233918",
                                    "longitude": "-121.924452"
                                }
                            },
                            "status": {
                                "statusDesc": "Pouring",
                                "statusCode": "Pou"
                            },
                            "date": "2019-06-18T18:31:55+00:00"
                        }
                    },
                    "ticket": {
                        "_links": [
                            {
                                "href": "/v1/dsm/tickets/14759454",
                                "rel": "self",
                                "method": "GET"
                            }
                        ],
                        "ticketId": 9596396,
                        "ticketCode": "3706000152",
                        "order": {
                            "_links": [
                                {
                                    "href": "/v1/ofm/orders/8985359",
                                    "rel": "self",
                                    "method": "GET"
                                }
                            ],
                            "orderId": 8985359,
                            "orderCode": "A8985359"
                        }
                    }
                }
            ]
        }
    }